{
    "version": 1,
    "disable_existing_loggers": false,
    "formatters": {
        "base_formatter": {
            "format": "[%(asctime)s,%(msecs)03d][%(levelname)-5s] %(msg)s (%(filename)s:%(lineno)s)",
            "datefmt": "%Y-%m-%d %H:%M:%S"
        }
    },
    "handlers": {
        "console": {
            "class": "logging.StreamHandler",
            "formatter": "base_formatter"
        }
    },
    "root": {
        "handlers": ["console"],
        "level": "INFO"
   }
}
